RMarkdown-Homework-ODD_Sales_Aggregated
…
##      speed           dist       
##  Min.   : 4.0   Min.   :  2.00  
##  1st Qu.:12.0   1st Qu.: 26.00  
##  Median :15.0   Median : 36.00  
##  Mean   :15.4   Mean   : 42.98  
##  3rd Qu.:19.0   3rd Qu.: 56.00  
##  Max.   :25.0   Max.   :120.00

#get data, filter data and str_replace for ASTON MARTN"
car_agg <- readRDS("C:\\Users\\Kafein\\Documents\\github2\\pj18-Leyla.Yigit\\AssignmentWeek3\\car_data_aggregate.rds")
car_agg <- car_agg %>% filter(brand_name !="TOPLAM:" & !str_detect(brand_name,"ODD"))
car_agg$brand_name <- str_replace(car_agg$brand_name,"ASTON MARTN","ASTON MARTIN")
tbl_df(car_agg)

## # A tibble: 1,477 x 12
##    brand_name auto_dom auto_imp auto_total comm_dom comm_imp comm_total
##    <chr>         <dbl>    <dbl>      <dbl>    <dbl>    <dbl>      <dbl>
##  1 ALFA ROMEO        0       13         13        0        0          0
##  2 ASTON MAR~        0        2          2        0        0          0
##  3 AUDI              0      350        350        0        0          0
##  4 BENTLEY           0        0          0        0        0          0
##  5 BMW               0      158        158        0        0          0
##  6 CITROEN           0      134        134        0      197        197
##  7 DACIA             0     1141       1141        0      319        319
##  8 DS                0        9          9        0        0          0
##  9 FERRARI           0        3          3        0        0          0
## 10 FIAT            632       57        689      789      199        988
## # ... with 1,467 more rows, and 5 more variables: total_dom <dbl>,
## #   total_imp <dbl>, total_total <dbl>, year <dbl>, month <dbl>
…
Including Plots

You can also embed plots, for example:

## function (data) 
## {
##     as_tibble(data, .name_repair = "check_unique")
## }
## <bytecode: 0x000000001ccb4a00>
## <environment: namespace:dplyr>

## # A tibble: 33 x 1
##    Date      
##    <date>    
##  1 2018-09-30
##  2 2018-08-31
##  3 2018-07-31
##  4 2018-06-30
##  5 2018-05-31
##  6 2018-04-30
##  7 2018-03-31
##  8 2018-02-28
##  9 2018-01-31
## 10 2017-12-31
## # ... with 23 more rows
…
#Lets calculate number of counts per year for each species. First we need to group the data and count records within each group:

count_by_month <- car_agg %>%
    group_by(Date) %>%
    tally

count_by_month

## # A tibble: 33 x 2
##    Date           n
##    <date>     <int>
##  1 2016-01-31    46
##  2 2016-02-29    48
##  3 2016-03-31    46
##  4 2016-04-30    48
##  5 2016-05-31    48
##  6 2016-06-30    46
##  7 2016-07-31    48
##  8 2016-08-31    48
##  9 2016-09-30    46
## 10 2016-10-31    47
## # ... with 23 more rows
…
car_agg_summary_brand <-
  car_agg %>%
  group_by(brand_name)%>%
  summarise(total_total=sum(total_total),auto_total=sum(auto_total),comm_total=sum(comm_total))%>%
  arrange(desc(total_total))

car_agg_summary_brand

## # A tibble: 49 x 4
##    brand_name    total_total auto_total comm_total
##    <chr>               <dbl>      <dbl>      <dbl>
##  1 RENAULT            318500     279831      38669
##  2 FIAT               275900     142022     133878
##  3 FORD               271157     100172     170985
##  4 VOLKSWAGEN         262041     198371      63670
##  5 HYUNDAI            131666     125446       6220
##  6 DACIA              117978     103206      14772
##  7 OPEL               117122     117122          0
##  8 TOYOTA             106950      95582      11368
##  9 PEUGEOT             98036      74042      23994
## 10 MERCEDES-BENZ       93944      70584      23360
## # ... with 39 more rows
…
